brain "Kitava"{

    flip 2 else @start
    turn right
    set 0

@start:
    if (sense here home) {
        mark 6
    }
    if(sense ahead antlion) {
        jump @drehen
    }
    move else @drehen
    mark 6
    pickup else @checken
    jump @breeden

@checken:
    if(sense left food) {
        if(sense right food) {
            if(test 0) {
                turn right
                unset 0
                jump @start
            } else {
                turn left
                set 0
                jump @start
            }
        }else{
            turn left
            jump @start
        }
    } else{
        if(sense right food) {
          turn right
          jump @start
          } else {
              jump @start
          }
      }

@breeden:
    if (breed)  {
        pickup else @start
        jump @dreh
    } else {
        if(sense left friendfood) {
          turn left
          jump @breeden
          } else {
          if (sense right friendfood) {
            turn right
            jump @breeden
            } else {
                jump @dreh
            }
          }
    }


@drehen:
    if (sense right rock) {
        if(sense left rock) {
          if(sense ahead rock)  {
              if (test 0) {
                turn right
                turn right
              } else {
                turn left
                turn left
            }
          } else {
             if(test 0) {
                turn right
                unset 0
              } else {
                turn left
                set 0
              }
          }
        } else {
          turn left
        }
    } else {
        if(sense left rock) {
          turn right
        } else {
          if(test 0) {
            turn right
            turn right
            unset 0
          } else {
            turn left
            set 0
          }
        }
    }

    jump @start

@dreh:
    turn right
    turn right
    turn right
    unmark 6
    jump @ruckweg

@vormove:
    turn right
    @move:
      move else @vormove
      sense here home else @move
      drop else @vormove
      turn left
      turn left
      turn left
      jump @start

@ruckweg:
    while (!sense here home)  {
        if(sense here friendfood) {
            if(sense ahead marker 6) {
                move else @ruckweg
                unmark 6
            } else {
                if(sense left marker 6) {
                    if (sense right marker 6) {
                        if(test 0)  {
                            turn right
                            unset 0
                        } else {
                            turn left
                            set 0
                        }
                    } else {
                        turn left
                        jump @ruckweg
                    }
                } else {
                    if (sense right marker 6) {
                        turn right
                        jump @ruckweg
                } else {
                    if (sense ahead home) {
                    @pause:
                        move else @pause
                    } else {
                        if (sense left home) {
                            turn left
                        @pausel:
                            move else @pausel
                        } else {
                            if (sense right home) {
                                turn right
                            @pauser:
                                move else @pauser
                            } else {
                                if (sense ahead antlion) {
                                    if(test 0) {
                                        turn right
                                        unset 0
                                    } else {
                                        turn left
                                        set 0
                                    }
                                    jump @ruckweg
                                } else {
                                    if (move) {
                                       jump @ruckweg
                                    } else {
                                        if(test 0) {
                                            turn right
                                            unset 0
                                        } else {
                                            turn left
                                            set 0
                                        }
                                        jump @ruckweg
                                    }
                                }
                            }
                        }
                    }
                }
            }
        }
    } else {
        jump @fuck
    }
}

  drop else @fuck
    @fuck:
    turn left
    turn left
    turn left
    jump @start
    }
